SPORTS,1
yes,2
Hi,3
see saw,4
jungle gym,5
merry-go...,6
sandbox,7
monkey bars,8
no,9
slide,10
swing,11
goodbye,12
me,13
my,14
TALK,15
can,16
all done,17
that,18
and,19
off,20
what,21
a,22
+S,23
again,24
I,25
we,26
are,27
is,28
were,29
was,30
on,31
to,32
funny,33
and,34
the,35
find,36
you,37
they,38
know,39
play,40
like,41
work,42
have,43
feel,44
read,45
more,46
fast,47
stop,48
it,49
he,50
want,51
FAMILY,52
come,53
time,54
do,55
think,56
big,57
get,58
COLOR,59
wash,60
she,61
look,62
slow,63
computer,64
call,65
good,66
hear,67
live,68
go,69
ride,70
love,71
help,72
START OVER,73
don't,74
change,75
eat,76
make,77
need,78
bad,79
watch,80
drink,81
turn,82
put,83
sleep,84
